{
  "version": "3.0",
  "vulnerabilities": [
    {
      "id": "5d2781e56c61904b18308ed91d751ff3d1c7642386966172a4337e276549a21a",
      "category": "secret_detection",
      "name": "Gitleaks rule Test for Custom Rulesets",
      "message": "Gitleaks rule Test for Custom Rulesets",
      "description": "Gitleaks rule Test for Custom Rulesets detected a secret",
      "cve": "main.php:4f74c9dc49546853bfbfc23bf76087af0296928a57750203dab8f3c91764e6b4:Test for Custom Rulesets",
      "severity": "Critical",
      "confidence": "Unknown",
      "raw_source_code_extract": "Custom Ruleset Test",
      "scanner": {
        "id": "gitleaks",
        "name": "Gitleaks"
      },
      "location": {
        "file": "main.php",
        "commit": {
          "author": "Analyzer",
          "date": "1970-01-01T00:00:00Z",
          "sha": "cb8c5a94243a9a76ffc6c61b86fde6a7e96d4bc3"
        },
        "start_line": 14,
        "end_line": 14
      },
      "identifiers": [
        {
          "type": "gitleaks_rule_id",
          "name": "Gitleaks rule ID Test for Custom Rulesets",
          "value": "Test for Custom Rulesets"
        }
      ]
    }
  ],
  "remediations": [],
  "scan": {
    "scanner": {
      "id": "gitleaks",
      "name": "Gitleaks",
      "url": "https://github.com/zricethezav/gitleaks",
      "vendor": {
        "name": "GitLab"
      },
      "version": "6.1.2"
    },
    "type": "secret_detection",
    "start_time": "2020-10-13T20:43:00",
    "end_time": "2020-10-13T20:43:00",
    "status": "success"
  }
}
